{
    "type": "mysql",
    "host": "localhost",
    "port": 3306,
    "username": "root",
    "password": "",
    "database": "typeorm-nest-db",
    "entities": [
        "dist/entity/**/*.js"
    ],
    "synchronize": true
}